Speed-Acc Noise Gaze Analysis
…
Km note: Looks like there are only 25 trials for speed_acc_adult_ng-8. Not sure whats going on?

How many trials in each condition?

by_gaze_condition <- group_by(d, gaze_condition, subid, tr.num)
summary_by_gaze_condition <-summarise(.data = by_gaze_condition)
count(summary_by_gaze_condition)

## # A tibble: 22 x 3
## # Groups:   gaze_condition, subid [22]
##    gaze_condition                 subid     n
##             <chr>                 <chr> <int>
##  1           gaze  speed_acc_adult_ng_1    32
##  2           gaze speed_acc_adult_ng_10    32
##  3           gaze speed_acc_adult_ng_11    32
##  4           gaze  speed_acc_adult_ng_2    32
##  5           gaze  speed_acc_adult_ng_3    32
##  6           gaze  speed_acc_adult_ng_4    32
##  7           gaze  speed_acc_adult_ng_5    32
##  8           gaze  speed_acc_adult_ng_6    32
##  9           gaze  speed_acc_adult_ng_7    32
## 10           gaze  speed_acc_adult_ng_8     9
## # ... with 12 more rows

by_noise_condition <- group_by(d, noise_condition, subid, tr.num)
summary_by_noise_condition <-summarise(.data = by_noise_condition)
count(summary_by_noise_condition)

## # A tibble: 21 x 3
## # Groups:   noise_condition, subid [21]
##    noise_condition                 subid     n
##              <chr>                 <chr> <int>
##  1        no_noise  speed_acc_adult_ng_1    32
##  2        no_noise speed_acc_adult_ng_10    32
##  3        no_noise speed_acc_adult_ng_11    28
##  4        no_noise  speed_acc_adult_ng_2    32
##  5        no_noise  speed_acc_adult_ng_3    32
##  6        no_noise  speed_acc_adult_ng_4    32
##  7        no_noise  speed_acc_adult_ng_5    32
##  8        no_noise  speed_acc_adult_ng_6    32
##  9        no_noise  speed_acc_adult_ng_7    32
## 10        no_noise  speed_acc_adult_ng_9    32
## # ... with 11 more rows
…
