Speed-Acc Child Gaze Analysis
…
## # A tibble: 1 x 1
##       n
##   <int>
## 1    35

How many trials do we have for each participant?

by_trial <- group_by(d, subid, tr.num)
summary_by_trial <- summarise(.data = by_trial)
count(summary_by_trial)

## # A tibble: 35 x 2
## # Groups:   subid [35]
##                      subid     n
##                      <chr> <int>
##  1  speed_acc_child_gaze_1    32
##  2 speed_acc_child_gaze_10    32
##  3 speed_acc_child_gaze_11    26
##  4 speed_acc_child_gaze_12    32
##  5 speed_acc_child_gaze_13    32
##  6 speed_acc_child_gaze_14    32
##  7 speed_acc_child_gaze_15    32
##  8 speed_acc_child_gaze_16    32
##  9 speed_acc_child_gaze_17    32
## 10 speed_acc_child_gaze_18     6
## # ... with 25 more rows
…
